/*!
 * JavaScript Cookie v2.2.1
 * https://github.com/js-cookie/js-cookie
 *
 * Copyright 2006, 2015 Klaus Hartl & Fagner Brack
 * Released under the MIT license
 */

/*!
* screenfull
* v5.1.0 - 2020-12-24
* (c) Sindre Sorhus; MIT License
*/

/*! https://mths.be/punycode v1.4.1 by @mathias */
